\relax 
\providecommand\hyper@newdestlabel[2]{}
\providecommand\HyperFirstAtBeginDocument{\AtBeginDocument}
\HyperFirstAtBeginDocument{\ifx\hyper@anchor\@undefined
\global\let\oldcontentsline\contentsline
\gdef\contentsline#1#2#3#4{\oldcontentsline{#1}{#2}{#3}}
\global\let\oldnewlabel\newlabel
\gdef\newlabel#1#2{\newlabelxx{#1}#2}
\gdef\newlabelxx#1#2#3#4#5#6{\oldnewlabel{#1}{{#2}{#3}}}
\AtEndDocument{\ifx\hyper@anchor\@undefined
\let\contentsline\oldcontentsline
\let\newlabel\oldnewlabel
\fi}
\fi}
\global\let\hyper@last\relax 
\gdef\HyperFirstAtBeginDocument#1{#1}
\providecommand\HyField@AuxAddToFields[1]{}
\providecommand\HyField@AuxAddToCoFields[2]{}
\select@language{english}
\@writefile{toc}{\select@language{english}}
\@writefile{lof}{\select@language{english}}
\@writefile{lot}{\select@language{english}}
\newlabel{index::doc}{{}{1}{}{section*.2}{}}
\@writefile{toc}{\contentsline {chapter}{\numberline {1}Intro}{1}{chapter.1}}
\@writefile{lof}{\addvspace {10\p@ }}
\@writefile{lot}{\addvspace {10\p@ }}
\newlabel{intro:documentation-for-leviton-test-framework}{{1}{1}{Intro}{chapter.1}{}}
\newlabel{intro::doc}{{1}{1}{Intro}{chapter.1}{}}
\newlabel{intro:intro}{{1}{1}{Intro}{chapter.1}{}}
\@writefile{toc}{\contentsline {chapter}{\numberline {2}Setup}{3}{chapter.2}}
\@writefile{lof}{\addvspace {10\p@ }}
\@writefile{lot}{\addvspace {10\p@ }}
\newlabel{setup:setup}{{2}{3}{Setup}{chapter.2}{}}
\newlabel{setup::doc}{{2}{3}{Setup}{chapter.2}{}}
\@writefile{toc}{\contentsline {section}{\numberline {2.1}Requirements}{3}{section.2.1}}
\newlabel{setup:requirements}{{2.1}{3}{Requirements}{section.2.1}{}}
\@writefile{toc}{\contentsline {section}{\numberline {2.2}Installing}{3}{section.2.2}}
\newlabel{setup:installing}{{2.2}{3}{Installing}{section.2.2}{}}
\@writefile{toc}{\contentsline {section}{\numberline {2.3}Uninstalling}{3}{section.2.3}}
\newlabel{setup:uninstalling}{{2.3}{3}{Uninstalling}{section.2.3}{}}
\@writefile{toc}{\contentsline {section}{\numberline {2.4}Uninstalling (But Keep Dependencies)}{3}{section.2.4}}
\newlabel{setup:uninstalling-but-keep-dependencies}{{2.4}{3}{Uninstalling (But Keep Dependencies)}{section.2.4}{}}
\@writefile{toc}{\contentsline {subsection}{\numberline {2.4.1}Setting Up the Test Environment}{4}{subsection.2.4.1}}
\newlabel{setup:setting-up-the-test-environment}{{2.4.1}{4}{Setting Up the Test Environment}{subsection.2.4.1}{}}
\@writefile{toc}{\contentsline {section}{\numberline {2.5}Kvaser Bus Parameters}{4}{section.2.5}}
\newlabel{setup:kvaser-bus-parameters}{{2.5}{4}{Kvaser Bus Parameters}{section.2.5}{}}
\@writefile{toc}{\contentsline {section}{\numberline {2.6}Tera Term Settings}{4}{section.2.6}}
\newlabel{setup:tera-term-settings}{{2.6}{4}{Tera Term Settings}{section.2.6}{}}
\@writefile{toc}{\contentsline {subsection}{\numberline {2.6.1}Helpful ADB Commands}{4}{subsection.2.6.1}}
\newlabel{setup:helpful-adb-commands}{{2.6.1}{4}{Helpful ADB Commands}{subsection.2.6.1}{}}
\@writefile{toc}{\contentsline {section}{\numberline {2.7}Enable Pointer Location for X Y Coordinates On Screen}{4}{section.2.7}}
\newlabel{setup:enable-pointer-location-for-x-y-coordinates-on-screen}{{2.7}{4}{Enable Pointer Location for X Y Coordinates On Screen}{section.2.7}{}}
\@writefile{toc}{\contentsline {chapter}{\numberline {3}Tutorials}{5}{chapter.3}}
\@writefile{lof}{\addvspace {10\p@ }}
\@writefile{lot}{\addvspace {10\p@ }}
\newlabel{tutorial::doc}{{3}{5}{Tutorials}{chapter.3}{}}
\newlabel{tutorial:tutorials}{{3}{5}{Tutorials}{chapter.3}{}}
\@writefile{toc}{\contentsline {section}{\numberline {3.1}1. Configuration}{5}{section.3.1}}
\newlabel{tutorial:configuration}{{3.1}{5}{1. Configuration}{section.3.1}{}}
\@writefile{toc}{\contentsline {section}{\numberline {3.2}Configuration Parameters Descriptions}{6}{section.3.2}}
\newlabel{tutorial:configuration-parameters-descriptions}{{3.2}{6}{Configuration Parameters Descriptions}{section.3.2}{}}
\@writefile{toc}{\contentsline {chapter}{\numberline {4}LumaCAN Parser}{7}{chapter.4}}
\@writefile{lof}{\addvspace {10\p@ }}
\@writefile{lot}{\addvspace {10\p@ }}
\newlabel{lumacan_parser:lumacan-parser}{{4}{7}{LumaCAN Parser}{chapter.4}{}}
\newlabel{lumacan_parser::doc}{{4}{7}{LumaCAN Parser}{chapter.4}{}}
\@writefile{toc}{\contentsline {section}{\numberline {4.1}Setting Up and Tearing Down Your Kvaser CAN Channels}{7}{section.4.1}}
\newlabel{lumacan_parser:setting-up-and-tearing-down-your-kvaser-can-channels}{{4.1}{7}{Setting Up and Tearing Down Your Kvaser CAN Channels}{section.4.1}{}}
\newlabel{lumacan_parser:leviton_test.canparser.set_up_channel}{{4.1}{7}{Setting Up and Tearing Down Your Kvaser CAN Channels}{section*.3}{}}
\@writefile{toc}{\contentsline {paragraph}{Examples}{7}{paragraph*.4}}
\newlabel{lumacan_parser:leviton_test.canparser.tear_down_channel}{{4.1}{7}{Setting Up and Tearing Down Your Kvaser CAN Channels}{section*.5}{}}
\@writefile{toc}{\contentsline {paragraph}{Examples}{8}{paragraph*.6}}
\@writefile{toc}{\contentsline {section}{\numberline {4.2}Reading Messages}{8}{section.4.2}}
\newlabel{lumacan_parser:reading-messages}{{4.2}{8}{Reading Messages}{section.4.2}{}}
\newlabel{lumacan_parser:leviton_test.canparser.messages}{{4.2}{8}{Reading Messages}{section*.7}{}}
\@writefile{toc}{\contentsline {paragraph}{Examples}{8}{paragraph*.8}}
\newlabel{lumacan_parser:leviton_test.canparser.str_from_msg}{{4.2}{8}{Reading Messages}{section*.9}{}}
\@writefile{toc}{\contentsline {paragraph}{Examples}{9}{paragraph*.10}}
\newlabel{lumacan_parser:leviton_test.canparser.bits_from_msg}{{4.2}{9}{Reading Messages}{section*.11}{}}
\@writefile{toc}{\contentsline {paragraph}{Examples}{9}{paragraph*.12}}
\@writefile{toc}{\contentsline {section}{\numberline {4.3}Writing Messages}{9}{section.4.3}}
\newlabel{lumacan_parser:writing-messages}{{4.3}{9}{Writing Messages}{section.4.3}{}}
\newlabel{lumacan_parser:leviton_test.canparser.time_msg_from_datetime}{{4.3}{9}{Writing Messages}{section*.13}{}}
\@writefile{toc}{\contentsline {paragraph}{Examples}{10}{paragraph*.14}}
\newlabel{lumacan_parser:leviton_test.canparser.date_msg_from_datetime}{{4.3}{10}{Writing Messages}{section*.15}{}}
\@writefile{toc}{\contentsline {paragraph}{Examples}{10}{paragraph*.16}}
\newlabel{lumacan_parser:leviton_test.canparser.broadcast_msg}{{4.3}{11}{Writing Messages}{section*.17}{}}
\@writefile{toc}{\contentsline {paragraph}{Examples}{11}{paragraph*.18}}
\@writefile{toc}{\contentsline {section}{\numberline {4.4}Getting Information from Messages}{11}{section.4.4}}
\newlabel{lumacan_parser:getting-information-from-messages}{{4.4}{11}{Getting Information from Messages}{section.4.4}{}}
\newlabel{lumacan_parser:leviton_test.canparser.command_type}{{4.4}{11}{Getting Information from Messages}{section*.19}{}}
\@writefile{toc}{\contentsline {paragraph}{Examples}{11}{paragraph*.20}}
\@writefile{toc}{\contentsline {section}{\numberline {4.5}Kvaser Message Format}{12}{section.4.5}}
\newlabel{lumacan_parser:kvaser-message-format}{{4.5}{12}{Kvaser Message Format}{section.4.5}{}}
\newlabel{lumacan_parser:kvaser-msg-format}{{4.5}{12}{Kvaser Message Format}{section.4.5}{}}
\@writefile{toc}{\contentsline {chapter}{\numberline {5}Indices and tables}{13}{chapter.5}}
\@writefile{lof}{\addvspace {10\p@ }}
\@writefile{lot}{\addvspace {10\p@ }}
\newlabel{index:indices-and-tables}{{5}{13}{Indices and tables}{chapter.5}{}}
