\select@language {english}
\contentsline {chapter}{\numberline {1}Intro}{1}{chapter.1}
\contentsline {chapter}{\numberline {2}Setup}{3}{chapter.2}
\contentsline {section}{\numberline {2.1}Requirements}{3}{section.2.1}
\contentsline {section}{\numberline {2.2}Installing}{3}{section.2.2}
\contentsline {section}{\numberline {2.3}Uninstalling}{3}{section.2.3}
\contentsline {section}{\numberline {2.4}Uninstalling (But Keep Dependencies)}{3}{section.2.4}
\contentsline {subsection}{\numberline {2.4.1}Setting Up the Test Environment}{4}{subsection.2.4.1}
\contentsline {section}{\numberline {2.5}Kvaser Bus Parameters}{4}{section.2.5}
\contentsline {section}{\numberline {2.6}Tera Term Settings}{4}{section.2.6}
\contentsline {subsection}{\numberline {2.6.1}Helpful ADB Commands}{4}{subsection.2.6.1}
\contentsline {section}{\numberline {2.7}Enable Pointer Location for X Y Coordinates On Screen}{4}{section.2.7}
\contentsline {chapter}{\numberline {3}Tutorials}{5}{chapter.3}
\contentsline {section}{\numberline {3.1}1. Configuration}{5}{section.3.1}
\contentsline {section}{\numberline {3.2}Configuration Parameters Descriptions}{6}{section.3.2}
\contentsline {chapter}{\numberline {4}LumaCAN Parser}{7}{chapter.4}
\contentsline {section}{\numberline {4.1}Setting Up and Tearing Down Your Kvaser CAN Channels}{7}{section.4.1}
\contentsline {paragraph}{Examples}{7}{paragraph*.4}
\contentsline {paragraph}{Examples}{8}{paragraph*.6}
\contentsline {section}{\numberline {4.2}Reading Messages}{8}{section.4.2}
\contentsline {paragraph}{Examples}{8}{paragraph*.8}
\contentsline {paragraph}{Examples}{9}{paragraph*.10}
\contentsline {paragraph}{Examples}{9}{paragraph*.12}
\contentsline {section}{\numberline {4.3}Writing Messages}{9}{section.4.3}
\contentsline {paragraph}{Examples}{10}{paragraph*.14}
\contentsline {paragraph}{Examples}{10}{paragraph*.16}
\contentsline {paragraph}{Examples}{11}{paragraph*.18}
\contentsline {section}{\numberline {4.4}Getting Information from Messages}{11}{section.4.4}
\contentsline {paragraph}{Examples}{11}{paragraph*.20}
\contentsline {section}{\numberline {4.5}Kvaser Message Format}{12}{section.4.5}
\contentsline {chapter}{\numberline {5}Indices and tables}{13}{chapter.5}
